jit branch predictor/jit_branch_predictor/pipeline.vcd
$date
	Sun Apr 19 00:56:47 2026
$end
$version
	Icarus Verilog
$end
$timescale
	1ps
$end
$scope module tb_top $end
$var wire 32 ! stalls [31:0] $end
$var wire 32 " misses [31:0] $end
$var wire 32 # cycles [31:0] $end
$var wire 32 $ branches [31:0] $end
$var parameter 32 % PRED_VAL $end
$var reg 1 & clk $end
$var reg 1 ' rst $end
$scope module dut $end
$var wire 1 ( actual_predicted_taken $end
$var wire 1 & clk $end
$var wire 1 ' rst $end
$var wire 1 ) wb_we $end
$var wire 5 * wb_rd [4:0] $end
$var wire 32 + wb_data [31:0] $end
$var wire 1 , use_fwd_b $end
$var wire 1 - use_fwd_a $end
$var wire 1 . stall $end
$var wire 1 / predicted_taken $end
$var wire 1 0 mispredicted $end
$var wire 1 1 mem_reg_write $end
$var wire 32 2 mem_rdata2 [31:0] $end
$var wire 5 3 mem_rd [4:0] $end
$var wire 1 4 mem_mem_write $end
$var wire 1 5 mem_mem_read $end
$var wire 32 6 mem_data_out [31:0] $end
$var wire 32 7 mem_alu_result [31:0] $end
$var wire 32 8 if_predicted_target [31:0] $end
$var wire 32 9 if_pc_plus4 [31:0] $end
$var wire 32 : if_pc [31:0] $end
$var wire 1 ; if_is_branch $end
$var wire 32 < if_instr [31:0] $end
$var wire 32 = if_imm [31:0] $end
$var wire 5 > id_rs2 [4:0] $end
$var wire 5 ? id_rs1 [4:0] $end
$var wire 1 @ id_reg_write $end
$var wire 32 A id_rdata2 [31:0] $end
$var wire 32 B id_rdata1 [31:0] $end
$var wire 5 C id_rd [4:0] $end
$var wire 1 D id_predicted_taken $end
$var wire 32 E id_pc [31:0] $end
$var wire 1 F id_mem_write $end
$var wire 1 G id_mem_read $end
$var wire 1 H id_is_branch $end
$var wire 32 I id_instr [31:0] $end
$var wire 32 J id_imm [31:0] $end
$var wire 1 K id_branch_type $end
$var wire 4 L id_alu_op [3:0] $end
$var wire 32 M fwd_b [31:0] $end
$var wire 32 N fwd_a [31:0] $end
$var wire 1 O flush $end
$var wire 5 P ex_rs2 [4:0] $end
$var wire 5 Q ex_rs1 [4:0] $end
$var wire 1 R ex_reg_write $end
$var wire 32 S ex_rdata2 [31:0] $end
$var wire 32 T ex_rdata1 [31:0] $end
$var wire 5 U ex_rd [4:0] $end
$var wire 1 V ex_predicted_taken $end
$var wire 32 W ex_pc [31:0] $end
$var wire 1 X ex_mem_write $end
$var wire 1 Y ex_mem_read $end
$var wire 1 Z ex_is_branch $end
$var wire 32 [ ex_imm [31:0] $end
$var wire 1 \ ex_branch_type $end
$var wire 32 ] ex_branch_target [31:0] $end
$var wire 1 ^ ex_branch_taken $end
$var wire 32 _ ex_alu_result [31:0] $end
$var wire 4 ` ex_alu_op [3:0] $end
$var wire 32 a actual_target [31:0] $end
$var parameter 32 b PREDICTOR_TYPE $end
$var reg 32 c total_branches [31:0] $end
$var reg 32 d total_cycles [31:0] $end
$var reg 32 e total_mispredictions [31:0] $end
$var reg 32 f total_stalls [31:0] $end
$scope module u_dmem $end
$var wire 1 & clk $end
$var wire 1 4 we $end
$var wire 32 g wdata [31:0] $end
$var wire 32 h addr [31:0] $end
$var reg 32 i rdata [31:0] $end
$var integer 32 j i [31:0] $end
$upscope $end
$scope module u_ex $end
$var wire 1 ^ branch_taken $end
$var wire 1 k zero $end
$var wire 1 , use_fwd_b $end
$var wire 1 - use_fwd_a $end
$var wire 32 l rdata2 [31:0] $end
$var wire 32 m rdata1 [31:0] $end
$var wire 32 n pc [31:0] $end
$var wire 32 o operand_b [31:0] $end
$var wire 32 p operand_a [31:0] $end
$var wire 1 Z is_branch $end
$var wire 32 q imm [31:0] $end
$var wire 32 r fwd_b [31:0] $end
$var wire 32 s fwd_a [31:0] $end
$var wire 1 \ branch_type $end
$var wire 32 t branch_target [31:0] $end
$var wire 32 u alu_result [31:0] $end
$var wire 4 v alu_op [3:0] $end
$scope module alu_inst $end
$var wire 32 w a [31:0] $end
$var wire 32 x b [31:0] $end
$var wire 1 k zero $end
$var wire 4 y op [3:0] $end
$var parameter 4 z ADD $end
$var parameter 4 { AND $end
$var parameter 4 | OR $end
$var parameter 4 } SLT $end
$var parameter 4 ~ SUB $end
$var parameter 4 !" XOR $end
$var reg 32 "" result [31:0] $end
$upscope $end
$upscope $end
$scope module u_ex_mem $end
$var wire 1 & clk $end
$var wire 32 #" ex_alu_result [31:0] $end
$var wire 1 ' rst $end
$var wire 1 R ex_reg_write $end
$var wire 32 $" ex_rdata2 [31:0] $end
$var wire 5 %" ex_rd [4:0] $end
$var wire 1 X ex_mem_write $end
$var wire 1 Y ex_mem_read $end
$var reg 32 &" mem_alu_result [31:0] $end
$var reg 1 5 mem_mem_read $end
$var reg 1 4 mem_mem_write $end
$var reg 5 '" mem_rd [4:0] $end
$var reg 32 (" mem_rdata2 [31:0] $end
$var reg 1 1 mem_reg_write $end
$upscope $end
$scope module u_flush $end
$var wire 1 ^ branch_taken $end
$var wire 32 )" branch_target [31:0] $end
$var wire 1 O flush $end
$var wire 1 0 mispredicted $end
$var wire 1 V predicted_taken $end
$var wire 32 *" ex_pc [31:0] $end
$var wire 1 Z ex_is_branch $end
$var wire 32 +" actual_target [31:0] $end
$upscope $end
$scope module u_fwd $end
$var wire 32 ," mem_alu_result [31:0] $end
$var wire 5 -" mem_rd [4:0] $end
$var wire 1 1 mem_reg_write $end
$var wire 1 ) wb_reg_write $end
$var wire 5 ." wb_rd [4:0] $end
$var wire 32 /" wb_data [31:0] $end
$var wire 5 0" ex_rs2 [4:0] $end
$var wire 5 1" ex_rs1 [4:0] $end
$var reg 32 2" fwd_a [31:0] $end
$var reg 32 3" fwd_b [31:0] $end
$var reg 1 - use_fwd_a $end
$var reg 1 , use_fwd_b $end
$upscope $end
$scope module u_haz $end
$var wire 1 . stall $end
$var wire 5 4" id_rs2 [4:0] $end
$var wire 5 5" id_rs1 [4:0] $end
$var wire 5 6" ex_rd [4:0] $end
$var wire 1 Y ex_mem_read $end
$upscope $end
$scope module u_id $end
$var wire 1 @ reg_write $end
$var wire 5 7" rs2 [4:0] $end
$var wire 5 8" rs1 [4:0] $end
$var wire 5 9" rd [4:0] $end
$var wire 32 :" pc [31:0] $end
$var wire 7 ;" opcode [6:0] $end
$var wire 1 F mem_write $end
$var wire 1 G mem_read $end
$var wire 1 H is_branch $end
$var wire 32 <" instr [31:0] $end
$var wire 32 =" imm [31:0] $end
$var wire 7 >" funct7 [6:0] $end
$var wire 3 ?" funct3 [2:0] $end
$var wire 1 K branch_type $end
$var wire 4 @" alu_op [3:0] $end
$var parameter 7 A" OP_BRANCH $end
$var parameter 7 B" OP_IMM $end
$var parameter 7 C" OP_LOAD $end
$var parameter 7 D" OP_REG $end
$var parameter 7 E" OP_STORE $end
$upscope $end
$scope module u_id_ex $end
$var wire 1 & clk $end
$var wire 1 O flush $end
$var wire 4 F" id_alu_op [3:0] $end
$var wire 1 K id_branch_type $end
$var wire 32 G" id_imm [31:0] $end
$var wire 1 H id_is_branch $end
$var wire 1 G id_mem_read $end
$var wire 1 F id_mem_write $end
$var wire 5 H" id_rd [4:0] $end
$var wire 1 @ id_reg_write $end
$var wire 5 I" id_rs1 [4:0] $end
$var wire 5 J" id_rs2 [4:0] $end
$var wire 1 ' rst $end
$var wire 32 K" id_rdata2 [31:0] $end
$var wire 32 L" id_rdata1 [31:0] $end
$var wire 1 D id_predicted_taken $end
$var wire 32 M" id_pc [31:0] $end
$var reg 4 N" ex_alu_op [3:0] $end
$var reg 1 \ ex_branch_type $end
$var reg 32 O" ex_imm [31:0] $end
$var reg 1 Z ex_is_branch $end
$var reg 1 Y ex_mem_read $end
$var reg 1 X ex_mem_write $end
$var reg 32 P" ex_pc [31:0] $end
$var reg 1 V ex_predicted_taken $end
$var reg 5 Q" ex_rd [4:0] $end
$var reg 32 R" ex_rdata1 [31:0] $end
$var reg 32 S" ex_rdata2 [31:0] $end
$var reg 1 R ex_reg_write $end
$var reg 5 T" ex_rs1 [4:0] $end
$var reg 5 U" ex_rs2 [4:0] $end
$upscope $end
$scope module u_if $end
$var wire 32 V" actual_target [31:0] $end
$var wire 1 & clk $end
$var wire 1 O flush $end
$var wire 1 0 mispredicted $end
$var wire 1 ( predicted_taken $end
$var wire 32 W" predicted_target [31:0] $end
$var wire 1 ' rst $end
$var wire 1 . stall $end
$var wire 32 X" pc_plus4 [31:0] $end
$var reg 32 Y" pc [31:0] $end
$upscope $end
$scope module u_if_id $end
$var wire 1 & clk $end
$var wire 1 O flush $end
$var wire 32 Z" if_pc [31:0] $end
$var wire 1 ( if_predicted_taken $end
$var wire 1 ' rst $end
$var wire 1 . stall $end
$var wire 32 [" if_instr [31:0] $end
$var reg 32 \" id_instr [31:0] $end
$var reg 32 ]" id_pc [31:0] $end
$var reg 1 D id_predicted_taken $end
$upscope $end
$scope module u_imem $end
$var wire 32 ^" addr [31:0] $end
$var wire 1 & clk $end
$var reg 32 _" instr [31:0] $end
$upscope $end
$scope module u_mem_wb $end
$var wire 32 `" alu_result [31:0] $end
$var wire 32 a" mem_rdata [31:0] $end
$var wire 1 5 mem_read $end
$var wire 5 b" rd [4:0] $end
$var wire 1 1 reg_write $end
$var wire 5 c" wb_rd [4:0] $end
$var wire 1 ) wb_we $end
$var wire 32 d" wb_data [31:0] $end
$upscope $end
$scope module u_pred $end
$var wire 1 ^ actual_taken $end
$var wire 1 & clk $end
$var wire 32 e" fetch_pc [31:0] $end
$var wire 1 f" p0 $end
$var wire 1 ' rst $end
$var wire 1 Z update_en $end
$var wire 32 g" update_pc [31:0] $end
$var wire 1 h" p3 $end
$var wire 1 i" p2 $end
$var wire 1 j" p1 $end
$var parameter 32 k" PREDICTOR_TYPE $end
$var reg 1 / predicted_taken $end
$scope module u_1bit $end
$var wire 1 ^ actual_taken $end
$var wire 1 & clk $end
$var wire 32 l" pc [31:0] $end
$var wire 1 ' rst $end
$var wire 1 Z update_en $end
$var wire 32 m" update_pc [31:0] $end
$var wire 6 n" update_idx [5:0] $end
$var wire 1 j" predicted_taken $end
$var wire 6 o" pred_idx [5:0] $end
$var reg 64 p" pred_table [63:0] $end
$upscope $end
$scope module u_2bit $end
$var wire 1 ^ actual_taken $end
$var wire 1 & clk $end
$var wire 32 q" pc [31:0] $end
$var wire 1 ' rst $end
$var wire 1 Z update_en $end
$var wire 32 r" update_pc [31:0] $end
$var wire 6 s" update_idx [5:0] $end
$var wire 1 i" predicted_taken $end
$var wire 6 t" pred_idx [5:0] $end
$var parameter 2 u" SN $end
$var parameter 2 v" ST $end
$var parameter 2 w" WN $end
$var parameter 2 x" WT $end
$var integer 32 y" i [31:0] $end
$upscope $end
$scope module u_ghr $end
$var wire 1 ^ actual_taken $end
$var wire 1 & clk $end
$var wire 32 z" pc [31:0] $end
$var wire 8 {" pred_idx [7:0] $end
$var wire 1 ' rst $end
$var wire 1 Z update_en $end
$var wire 8 |" update_idx [7:0] $end
$var wire 32 }" update_pc [31:0] $end
$var wire 1 h" predicted_taken $end
$var reg 8 ~" ghr [7:0] $end
$var integer 32 !# i [31:0] $end
$upscope $end
$scope module u_static $end
$var wire 1 ^ actual_taken $end
$var wire 1 & clk $end
$var wire 32 "# pc [31:0] $end
$var wire 1 f" predicted_taken $end
$var wire 1 ' rst $end
$var wire 1 Z update_en $end
$upscope $end
$upscope $end
$scope module u_rf $end
$var wire 1 & clk $end
$var wire 5 ## rd [4:0] $end
$var wire 5 $# rs1 [4:0] $end
$var wire 5 %# rs2 [4:0] $end
$var wire 32 &# wdata [31:0] $end
$var wire 1 ) we $end
$var wire 32 '# rdata2 [31:0] $end
$var wire 32 (# rdata1 [31:0] $end
$var integer 32 )# i [31:0] $end
$upscope $end
$upscope $end
$scope task run_trace $end
$var reg 2048 *# trace_file [2047:0] $end
$var reg 2048 +# trace_name [2047:0] $end
$var integer 32 ,# i [31:0] $end
$upscope $end
$upscope $end
$enddefinitions $end
$comment Show the parameter values. $end
$dumpall
b10 x"
b1 w"
b11 v"
b0 u"
b11 k"
b100011 E"
b110011 D"
b11 C"
b10011 B"
b1100011 A"
b101 !"
b1 ~
b100 }
b11 |
b10 {
b0 z
b11 b
b11 %
$end
#0
$dumpvars
bx ,#
bx +#
bx *#
b100000 )#
b0 (#
b0 '#
b0 &#
b0 %#
b0 $#
b0 ##
b0 "#
b100000000 !#
b0 ~"
b0 }"
b0 |"
b0 {"
b0 z"
b1000000 y"
b0 t"
b0 s"
b0 r"
b0 q"
b0 p"
b0 o"
b0 n"
b0 m"
b0 l"
0j"
0i"
0h"
b0 g"
0f"
b0 e"
b0 d"
b0 c"
b0 b"
bx a"
b0 `"
bx _"
b0 ^"
b0 ]"
b10011 \"
bx ["
b0 Z"
b0 Y"
b100 X"
bx W"
b100 V"
b0 U"
b0 T"
b0 S"
b0 R"
b0 Q"
b0 P"
b0 O"
b0 N"
b0 M"
b0 L"
b0 K"
b0 J"
b0 I"
b0 H"
b0 G"
b0 F"
b0 @"
b0 ?"
b0 >"
b0 ="
b10011 <"
b10011 ;"
b0 :"
b0 9"
b0 8"
b0 7"
b0 6"
b0 5"
b0 4"
b0 3"
b0 2"
b0 1"
b0 0"
b0 /"
b0 ."
b0 -"
b0 ,"
b100 +"
b0 *"
b0 )"
b0 ("
b0 '"
b0 &"
b0 %"
b0 $"
b0 #"
b0 ""
b0 y
b0 x
b0 w
b0 v
b0 u
b0 t
b0 s
b0 r
b0 q
b0 p
b0 o
b0 n
b0 m
b0 l
1k
b100000000 j
bx i
b0 h
b0 g
b0 f
b0 e
b0 d
b0 c
b100 a
b0 `
b0 _
0^
b0 ]
0\
b0 [
0Z
0Y
0X
b0 W
0V
b0 U
b0 T
b0 S
0R
b0 Q
b0 P
0O
b0 N
b0 M
b0 L
0K
b0 J
b10011 I
0H
0G
0F
b0 E
0D
b0 C
b0 B
b0 A
1@
b0 ?
b0 >
bx0 =
bx <
x;
b0 :
b100 9
bx 8
b0 7
bx 6
05
04
b0 3
b0 2
01
00
0/
0.
0-
0,
b0 +
b0 *
0)
0(
1'
0&
b0 $
b0 #
b0 "
b0 !
$end
#5000
b0 6
b0 i
b0 a"
b100000000 ,#
b1101100011011110110111101110000010111110110100001100101011000010111011001111001 +#
b11101000110001000101111011101000111001001100001011000110110010101110011001011110110110001101111011011110111000001011111011010000110010101100001011101100111100100101110011011010110010101101101 *#
b100000000 !#
b1000000 y"
1&
#10000
0&
#15000
b10 8
b10 W"
b10 =
0;
b101000000000000100010011 <
b101000000000000100010011 ["
b101000000000000100010011 _"
b1000000 y"
b100000000 !#
1&
#20000
0&
#25000
b100000000 !#
b1000000 y"
1&
#30000
0&
#35000
0'
b1000000 y"
b100000000 !#
1&
#40000
0&
#45000
b100 {"
b10 J
b10 ="
b10 G"
b10 C
b10 9"
b10 H"
b1010 >
b1010 4"
b1010 7"
b1010 J"
b1010 %#
b1 o"
b1 t"
b1 #
b1 d
1R
b101000000000000100010011 I
b101000000000000100010011 <"
b101000000000000100010011 \"
b1000 9
b1000 X"
b110 8
b110 W"
b100 :
b100 Y"
b100 Z"
b100 ^"
b100 e"
b100 l"
b100 q"
b100 z"
b100 "#
1&
#50000
0&
#55000
b1000 {"
b100000000010 =
b10 o"
b10 t"
b10100000000000110010011 <
b10100000000000110010011 ["
b10100000000000110010011 _"
b1100 9
b1100 X"
b100000001010 8
b100000001010 W"
b1000 :
b1000 Y"
b1000 Z"
b1000 ^"
b1000 e"
b1000 l"
b1000 q"
b1000 z"
b1000 "#
b100 E
b100 :"
b100 M"
b100 ]"
b10 U
b10 %"
b10 6"
b10 Q"
b1010 P
b1010 0"
b1010 U"
b10 ]
b10 t
b10 )"
b10 [
b10 q
b10 O"
1)
11
b10 #
b10 d
1&
#60000
0&
#65000
b100 |"
b1100 {"
b1 n"
b1 s"
b1000 a
b1000 +"
b1000 V"
b100000000010 J
b100000000010 ="
b100000000010 G"
b11 C
b11 9"
b11 H"
b101 >
b101 4"
b101 7"
b101 J"
b101 %#
b11 o"
b11 t"
b100011000000110010011 <
b100011000000110010011 ["
b100011000000110010011 _"
b11 #
b11 d
b10 *
b10 ."
b10 c"
b10 ##
b10 3
b10 '"
b10 -"
b10 b"
b110 ]
b110 t
b110 )"
b100 W
b100 n
b100 *"
b100 P"
b100 g"
b100 m"
b100 r"
b100 }"
b10100000000000110010011 I
b10100000000000110010011 <"
b10100000000000110010011 \"
b1000 E
b1000 :"
b1000 M"
b1000 ]"
b10000 9
b10000 X"
b100000001110 8
b100000001110 W"
b1100 :
b1100 Y"
b1100 Z"
b1100 ^"
b1100 e"
b1100 l"
b1100 q"
b1100 z"
b1100 "#
1&
#70000
0&
#75000
b10000 {"
b1 A
b1 K"
b1 '#
b1000 |"
b11111111111111111111111111110100 =
1;
b100 o"
b100 t"
b1 >
b1 4"
b1 7"
b1 J"
b1 %#
b11 ?
b11 5"
b11 8"
b11 I"
b11 $#
b10 n"
b10 s"
b1100 a
b1100 +"
b1100 V"
b11111110000000011001101011100011 <
b11111110000000011001101011100011 ["
b11111110000000011001101011100011 _"
b10100 9
b10100 X"
b100 8
b100 W"
b10000 :
b10000 Y"
b10000 Z"
b10000 ^"
b10000 e"
b10000 l"
b10000 q"
b10000 z"
b10000 "#
b100011000000110010011 I
b100011000000110010011 <"
b100011000000110010011 \"
b1100 E
b1100 :"
b1100 M"
b1100 ]"
b11 U
b11 %"
b11 6"
b11 Q"
b101 P
b101 0"
b101 U"
b100000000010 [
b100000000010 q
b100000000010 O"
b100000001010 ]
b100000001010 t
b100000001010 )"
b1000 W
b1000 n
b1000 *"
b1000 P"
b1000 g"
b1000 m"
b1000 r"
b1000 }"
b100 #
b100 d
1&
#80000
0&
#85000
0@
0k
b1 _
b1 u
b1 ""
b1 #"
b1100 |"
b0 A
b0 K"
b0 '#
1K
b1 L
b1 @"
b1 F"
b10100 {"
b11111111111111111111011111100010 =
0;
1-
b1 o
b1 x
b11 n"
b11 s"
b10000 a
b10000 +"
b10000 V"
b11111111111111111111111111110100 J
b11111111111111111111111111110100 ="
b11111111111111111111111111110100 G"
b10101 C
b10101 9"
b10101 H"
b0 >
b0 4"
b0 7"
b0 J"
b0 %#
b1111111 >"
b1 ?"
1H
b1100011 ;"
b101 o"
b101 t"
b11111111111100010000000100010011 <
b11111111111100010000000100010011 ["
b11111111111100010000000100010011 _"
b101 #
b101 d
b11 *
b11 ."
b11 c"
b11 ##
b11 3
b11 '"
b11 -"
b11 b"
b1 P
b1 0"
b1 U"
b11 Q
b11 1"
b11 T"
b1 S
b1 l
b1 $"
b1 S"
b100000001110 ]
b100000001110 t
b100000001110 )"
b1100 W
b1100 n
b1100 *"
b1100 P"
b1100 g"
b1100 m"
b1100 r"
b1100 }"
b11111110000000011001101011100011 I
b11111110000000011001101011100011 <"
b11111110000000011001101011100011 \"
b10000 E
b10000 :"
b10000 M"
b10000 ]"
b11000 9
b11000 X"
b11111111111111111111011111110110 8
b11111111111111111111011111110110 W"
b10100 :
b10100 Y"
b10100 Z"
b10100 ^"
b10100 e"
b10100 l"
b10100 q"
b10100 z"
b10100 "#
1&
#90000
0&
#95000
1O
10
1^
1@
b11000 {"
0K
b0 L
b0 @"
b0 F"
b10000 |"
b1 p
b1 w
b11111111111111111111111111110100 =
1;
b110 o"
b110 t"
b11111111111111111111011111100010 J
b11111111111111111111011111100010 ="
b11111111111111111111011111100010 G"
b10 C
b10 9"
b10 H"
b11111 >
b11111 4"
b11111 7"
b11111 J"
b11111 %#
b10 ?
b10 5"
b10 8"
b10 I"
b10 $#
b0 ?"
0H
b10011 ;"
0k
b1 _
b1 u
b1 ""
b1 #"
b0 o
b0 x
b100 n"
b100 s"
b100 a
b100 +"
b100 V"
b1 +
b1 /"
b1 d"
b1 &#
b1 N
b1 s
b1 2"
b11111110000000010001101011100011 <
b11111110000000010001101011100011 ["
b11111110000000010001101011100011 _"
b11100 9
b11100 X"
b1100 8
b1100 W"
b11000 :
b11000 Y"
b11000 Z"
b11000 ^"
b11000 e"
b11000 l"
b11000 q"
b11000 z"
b11000 "#
b11111111111100010000000100010011 I
b11111111111100010000000100010011 <"
b11111111111100010000000100010011 \"
b10100 E
b10100 :"
b10100 M"
b10100 ]"
1\
1Z
0R
b1 `
b1 v
b1 y
b1 N"
b10101 U
b10101 %"
b10101 6"
b10101 Q"
b0 P
b0 0"
b0 U"
b11111111111111111111111111110100 [
b11111111111111111111111111110100 q
b11111111111111111111111111110100 O"
b0 S
b0 l
b0 $"
b0 S"
b100 ]
b100 t
b100 )"
b10000 W
b10000 n
b10000 *"
b10000 P"
b10000 g"
b10000 m"
b10000 r"
b10000 }"
b1 2
b1 g
b1 ("
b1 7
b1 h
b1 &"
b1 ,"
b1 `"
b110 #
b110 d
1&
#100000
0&
#105000
1k
b0 _
b0 u
b0 ""
b0 #"
b0 p
b0 w
b0 =
0;
b1 |"
b101 {"
0O
00
0^
0-
b0 N
b0 s
b0 2"
b0 n"
b0 s"
b100 a
b100 +"
b100 V"
b0 J
b0 ="
b0 G"
b0 C
b0 9"
b0 H"
b0 >
b0 4"
b0 7"
b0 J"
b0 %#
b0 ?
b0 5"
b0 8"
b0 I"
b0 $#
b0 >"
b1 o"
b1 t"
b10011 <
b10011 ["
b10011 _"
b1 !
b1 f
b1 "
b1 e
b1 $
b1 c
b111 #
b111 d
b1 ~"
b10000 p"
0)
01
b10101 *
b10101 ."
b10101 c"
b10101 ##
b10101 3
b10101 '"
b10101 -"
b10101 b"
b0 2
b0 g
b0 ("
0\
0Z
b0 `
b0 v
b0 y
b0 N"
b0 U
b0 %"
b0 6"
b0 Q"
b0 Q
b0 1"
b0 T"
b0 [
b0 q
b0 O"
b0 ]
b0 t
b0 )"
b0 W
b0 n
b0 *"
b0 P"
b0 g"
b0 m"
b0 r"
b0 }"
b10011 I
b10011 <"
b10011 \"
b0 E
b0 :"
b0 M"
b0 ]"
b1000 9
b1000 X"
b100 8
b100 W"
b100 :
b100 Y"
b100 Z"
b100 ^"
b100 e"
b100 l"
b100 q"
b100 z"
b100 "#
1&
#110000
0&
#115000
b1001 {"
b100000000010 =
b10 o"
b10 t"
b0 +
b0 /"
b0 d"
b0 &#
b10100000000000110010011 <
b10100000000000110010011 ["
b10100000000000110010011 _"
b1100 9
b1100 X"
b100000001010 8
b100000001010 W"
b1000 :
b1000 Y"
b1000 Z"
b1000 ^"
b1000 e"
b1000 l"
b1000 q"
b1000 z"
b1000 "#
b100 E
b100 :"
b100 M"
b100 ]"
1R
b0 *
b0 ."
b0 c"
b0 ##
b0 3
b0 '"
b0 -"
b0 b"
b0 7
b0 h
b0 &"
b0 ,"
b0 `"
b1000 #
b1000 d
1&
#120000
0&
#125000
b101 |"
b1101 {"
b1 n"
b1 s"
b1000 a
b1000 +"
b1000 V"
b100000000010 J
b100000000010 ="
b100000000010 G"
b11 C
b11 9"
b11 H"
b101 >
b101 4"
b101 7"
b101 J"
b101 %#
b11 o"
b11 t"
b100011000000110010011 <
b100011000000110010011 ["
b100011000000110010011 _"
b1001 #
b1001 d
1)
11
b100 ]
b100 t
b100 )"
b100 W
b100 n
b100 *"
b100 P"
b100 g"
b100 m"
b100 r"
b100 }"
b10100000000000110010011 I
b10100000000000110010011 <"
b10100000000000110010011 \"
b1000 E
b1000 :"
b1000 M"
b1000 ]"
b10000 9
b10000 X"
b100000001110 8
b100000001110 W"
b1100 :
b1100 Y"
b1100 Z"
b1100 ^"
b1100 e"
b1100 l"
b1100 q"
b1100 z"
b1100 "#
1&
#130000
0&
#135000
1i"
b10001 {"
b1 A
b1 K"
b1 '#
b1 B
b1 L"
b1 (#
b1001 |"
b11111111111111111111111111110100 =
1;
1j"
b100 o"
b100 t"
b1 >
b1 4"
b1 7"
b1 J"
b1 %#
b11 ?
b11 5"
b11 8"
b11 I"
b11 $#
b10 n"
b10 s"
b1100 a
b1100 +"
b1100 V"
b11111110000000011001101011100011 <
b11111110000000011001101011100011 ["
b11111110000000011001101011100011 _"
b10100 9
b10100 X"
b100 8
b100 W"
b10000 :
b10000 Y"
b10000 Z"
b10000 ^"
b10000 e"
b10000 l"
b10000 q"
b10000 z"
b10000 "#
b100011000000110010011 I
b100011000000110010011 <"
b100011000000110010011 \"
b1100 E
b1100 :"
b1100 M"
b1100 ]"
b11 U
b11 %"
b11 6"
b11 Q"
b101 P
b101 0"
b101 U"
b100000000010 [
b100000000010 q
b100000000010 O"
b100000001010 ]
b100000001010 t
b100000001010 )"
b1000 W
b1000 n
b1000 *"
b1000 P"
b1000 g"
b1000 m"
b1000 r"
b1000 }"
b1010 #
b1010 d
1&
#140000
0&
#145000
0@
0k
b1 _
b1 u
b1 ""
b1 #"
b1101 |"
b0 A
b0 K"
b0 '#
1K
b1 L
b1 @"
b1 F"
0i"
b10101 {"
b11111111111111111111011111100010 =
0;
1-
b1 o
b1 x
b0 p
b0 w
b11 n"
b11 s"
b10000 a
b10000 +"
b10000 V"
b11111111111111111111111111110100 J
b11111111111111111111111111110100 ="
b11111111111111111111111111110100 G"
b10101 C
b10101 9"
b10101 H"
b0 >
b0 4"
b0 7"
b0 J"
b0 %#
b1111111 >"
b1 ?"
1H
b1100011 ;"
0j"
b101 o"
b101 t"
b11111111111100010000000100010011 <
b11111111111100010000000100010011 ["
b11111111111100010000000100010011 _"
b1011 #
b1011 d
b11 *
b11 ."
b11 c"
b11 ##
b11 3
b11 '"
b11 -"
b11 b"
b1 P
b1 0"
b1 U"
b11 Q
b11 1"
b11 T"
b1 S
b1 l
b1 $"
b1 S"
b1 T
b1 m
b1 R"
b100000001110 ]
b100000001110 t
b100000001110 )"
b1100 W
b1100 n
b1100 *"
b1100 P"
b1100 g"
b1100 m"
b1100 r"
b1100 }"
b11111110000000011001101011100011 I
b11111110000000011001101011100011 <"
b11111110000000011001101011100011 \"
b10000 E
b10000 :"
b10000 M"
b10000 ]"
b11000 9
b11000 X"
b11111111111111111111011111110110 8
b11111111111111111111011111110110 W"
b10100 :
b10100 Y"
b10100 Z"
b10100 ^"
b10100 e"
b10100 l"
b10100 q"
b10100 z"
b10100 "#
1&
#150000
0&
#155000
1O
10
1^
1@
b11001 {"
0K
b0 L
b0 @"
b0 F"
b10001 |"
b1 p
b1 w
b0 B
b0 L"
b0 (#
b11111111111111111111111111110100 =
1;
b110 o"
b110 t"
b11111111111111111111011111100010 J
b11111111111111111111011111100010 ="
b11111111111111111111011111100010 G"
b10 C
b10 9"
b10 H"
b11111 >
b11111 4"
b11111 7"
b11111 J"
b11111 %#
b10 ?
b10 5"
b10 8"
b10 I"
b10 $#
b0 ?"
0H
b10011 ;"
0k
b1 _
b1 u
b1 ""
b1 #"
b0 o
b0 x
b100 n"
b100 s"
b100 a
b100 +"
b100 V"
b1 +
b1 /"
b1 d"
b1 &#
b1 N
b1 s
b1 2"
b11111110000000010001101011100011 <
b11111110000000010001101011100011 ["
b11111110000000010001101011100011 _"
b11100 9
b11100 X"
b1100 8
b1100 W"
b11000 :
b11000 Y"
b11000 Z"
b11000 ^"
b11000 e"
b11000 l"
b11000 q"
b11000 z"
b11000 "#
b11111111111100010000000100010011 I
b11111111111100010000000100010011 <"
b11111111111100010000000100010011 \"
b10100 E
b10100 :"
b10100 M"
b10100 ]"
1\
1Z
0R
b1 `
b1 v
b1 y
b1 N"
b10101 U
b10101 %"
b10101 6"
b10101 Q"
b0 P
b0 0"
b0 U"
b11111111111111111111111111110100 [
b11111111111111111111111111110100 q
b11111111111111111111111111110100 O"
b0 S
b0 l
b0 $"
b0 S"
b100 ]
b100 t
b100 )"
b10000 W
b10000 n
b10000 *"
b10000 P"
b10000 g"
b10000 m"
b10000 r"
b10000 }"
b1 2
b1 g
b1 ("
b1 7
b1 h
b1 &"
b1 ,"
b1 `"
b1100 #
b1100 d
1&
#160000
0&
#165000
1k
b0 _
b0 u
b0 ""
b0 #"
b0 p
b0 w
b0 =
0;
b11 |"
b111 {"
0O
00
0^
0-
b0 N
b0 s
b0 2"
b0 n"
b0 s"
b100 a
b100 +"
b100 V"
b0 J
b0 ="
b0 G"
b0 C
b0 9"
b0 H"
b0 >
b0 4"
b0 7"
b0 J"
b0 %#
b0 ?
b0 5"
b0 8"
b0 I"
b0 $#
b0 >"
b1 o"
b1 t"
b10011 <
b10011 ["
b10011 _"
b10 !
b10 f
b10 "
b10 e
b10 $
b10 c
b1101 #
b1101 d
b11 ~"
0)
01
b10101 *
b10101 ."
b10101 c"
b10101 ##
b10101 3
b10101 '"
b10101 -"
b10101 b"
b0 2
b0 g
b0 ("
0\
0Z
b0 `
b0 v
b0 y
b0 N"
b0 U
b0 %"
b0 6"
b0 Q"
b0 Q
b0 1"
b0 T"
b0 [
b0 q
b0 O"
b0 T
b0 m
b0 R"
b0 ]
b0 t
b0 )"
b0 W
b0 n
b0 *"
b0 P"
b0 g"
b0 m"
b0 r"
b0 }"
b10011 I
b10011 <"
b10011 \"
b0 E
b0 :"
b0 M"
b0 ]"
b1000 9
b1000 X"
b100 8
b100 W"
b100 :
b100 Y"
b100 Z"
b100 ^"
b100 e"
b100 l"
b100 q"
b100 z"
b100 "#
1&
#170000
0&
#175000
b1011 {"
b100000000010 =
b10 o"
b10 t"
b0 +
b0 /"
b0 d"
b0 &#
b10100000000000110010011 <
b10100000000000110010011 ["
b10100000000000110010011 _"
b1100 9
b1100 X"
b100000001010 8
b100000001010 W"
b1000 :
b1000 Y"
b1000 Z"
b1000 ^"
b1000 e"
b1000 l"
b1000 q"
b1000 z"
b1000 "#
b100 E
b100 :"
b100 M"
b100 ]"
1R
b0 *
b0 ."
b0 c"
b0 ##
b0 3
b0 '"
b0 -"
b0 b"
b0 7
b0 h
b0 &"
b0 ,"
b0 `"
b1110 #
b1110 d
1&
#180000
0&
