jit branch predictor/jit_branch_predictor/showcase.vcd
$date
	Sun Apr 19 23:19:49 2026
$end
$version
	Icarus Verilog
$end
$timescale
	1ps
$end
$scope module tb_showcase $end
$var wire 32 ! st3 [31:0] $end
$var wire 32 " st2 [31:0] $end
$var wire 32 # st1 [31:0] $end
$var wire 32 $ st0 [31:0] $end
$var wire 32 % mis3 [31:0] $end
$var wire 32 & mis2 [31:0] $end
$var wire 32 ' mis1 [31:0] $end
$var wire 32 ( mis0 [31:0] $end
$var wire 32 ) cyc3 [31:0] $end
$var wire 32 * cyc2 [31:0] $end
$var wire 32 + cyc1 [31:0] $end
$var wire 32 , cyc0 [31:0] $end
$var wire 32 - br3 [31:0] $end
$var wire 32 . br2 [31:0] $end
$var wire 32 / br1 [31:0] $end
$var wire 32 0 br0 [31:0] $end
$var parameter 32 1 CLK_PERIOD $end
$var parameter 32 2 SIM_CYCLES $end
$var reg 1 3 clk0 $end
$var reg 1 4 clk1 $end
$var reg 1 5 clk2 $end
$var reg 1 6 clk3 $end
$var reg 1 7 rst0 $end
$var reg 1 8 rst1 $end
$var reg 1 9 rst2 $end
$var reg 1 : rst3 $end
$upscope $end
$enddefinitions $end
$comment Show the parameter values. $end
$dumpall
b11111010000 2
b1010 1
$end
#0
$dumpvars
1:
19
18
17
06
05
04
03
b0 0
b0 /
b0 .
b0 -
b0 ,
b0 +
b0 *
b0 )
b0 (
b0 '
b0 &
b0 %
b0 $
b0 #
b0 "
b0 !
$end
#5000
16
15
14
13
#10000
06
05
04
03
#15000
16
15
14
13
#20000
06
05
04
03
#25000
16
15
14
13
#30000
06
05
04
03
#35000
b1 )
b1 *
b1 +
b1 ,
0:
09
08
07
16
15
14
13
#40000
06
05
04
03
#45000
b10 )
b10 *
b10 +
b10 ,
16
15
14
13
#50000
06
05
04
03
#55000
b10 !
b1 %
b1 -
b11 )
b10 "
b1 &
b1 .
b11 *
b10 #
b1 '
b1 /
b11 +
b10 $
b1 (
b1 0
b11 ,
16
15
14
13
#60000
06
05
04
03
#65000
b100 )
b100 *
b100 +
b100 ,
16
15
14
13
#70000
06
05
04
03
#75000
b101 )
b101 *
b101 +
b101 ,
16
15
14
13
#80000
06
05
04
03
#85000
b110 )
b110 *
b110 +
b110 ,
16
15
14
13
#90000
06
05
04
03
#95000
b111 )
b111 *
b111 +
b111 ,
16
15
14
13
#100000
06
05
04
03
#105000
b100 !
b10 %
b10 -
b1000 )
b100 "
b10 &
b10 .
b1000 *
b100 #
b10 '
b10 /
b1000 +
b100 $
b10 (
b10 0
b1000 ,
16
15
14
13
#110000
06
05
04
03
#115000
b1001 )
b1001 *
b1001 +
b1001 ,
16
15
14
13
#120000
06
05
04
03
#125000
b1010 )
b1010 *
b1010 +
b1010 ,
16
15
14
13
#130000
06
05
04
03
#135000
b110 !
b11 %
b11 -
b1011 )
b110 "
b11 &
b11 .
b1011 *
b110 #
b11 '
b11 /
b1011 +
b110 $
b11 (
b11 0
b1011 ,
16
15
14
13
#140000
06
05
04
03
#145000
b1100 )
b1100 *
b1100 +
b1100 ,
16
15
14
13
#150000
06
05
04
03
#155000
b1101 )
b1101 *
b1101 +
b1101 ,
16
15
14
13
#160000
06
05
04
03
#165000
b1110 )
b1110 *
b1110 +
b1110 ,
16
15
14
13
#170000
06
05
04
03
#175000
b1111 )
b1111 *
b1111 +
b1111 ,
16
15
14
13
#180000
06
05
04
03
#185000
b1000 !
b100 %
b100 -
b10000 )
b1000 "
b100 &
b100 .
b10000 *
b1000 #
b100 '
b100 /
b10000 +
b1000 $
b100 (
b100 0
b10000 ,
16
15
14
13
#190000
06
05
04
03
#195000
b10001 )
b10001 *
b10001 +
b10001 ,
16
15
14
13
#200000
06
05
04
03
#205000
b10010 )
b10010 *
b10010 +
b10010 ,
16
15
14
13
#210000
06
05
04
03
#215000
b1010 !
b101 %
b101 -
b10011 )
b1010 "
b101 &
b101 .
b10011 *
b1010 #
b101 '
b101 /
b10011 +
b1010 $
b101 (
b101 0
b10011 ,
16
15
14
13
#220000
06
05
04
03
#225000
b10100 )
b10100 *
b10100 +
b10100 ,
16
15
14
13
#230000
06
05
04
03
#235000
b10101 )
b10101 *
b10101 +
b10101 ,
16
15
14
13
#240000
06
05
04
03
#245000
b10110 )
b10110 *
b10110 +
b10110 ,
16
15
14
13
#250000
06
05
04
03
#255000
b10111 )
b10111 *
b10111 +
b10111 ,
16
15
14
13
#260000
06
05
04
03
#265000
b1100 !
b110 %
b110 -
b11000 )
b1100 "
b110 &
b110 .
b11000 *
b1100 #
b110 '
b110 /
b11000 +
b1100 $
b110 (
b110 0
b11000 ,
16
15
14
13
#270000
06
05
04
03
#275000
b11001 )
b11001 *
b11001 +
b11001 ,
16
15
14
13
#280000
06
05
04
03
#285000
b11010 )
b11010 *
b11010 +
b11010 ,
16
15
14
13
#290000
06
05
04
03
#295000
b1110 !
b111 %
b111 -
b11011 )
b1110 "
b111 &
b111 .
b11011 *
b1110 #
b111 '
b111 /
b11011 +
b1110 $
b111 (
b111 0
b11011 ,
16
15
14
13
#300000
06
05
04
03
#305000
b11100 )
b11100 *
b11100 +
b11100 ,
16
15
14
13
#310000
06
05
04
03
#315000
b11101 )
b11101 *
b11101 +
b11101 ,
16
15
14
13
#320000
06
05
04
03
#325000
b11110 )
b11110 *
b11110 +
b11110 ,
16
15
14
13
#330000
06
05
04
03
#335000
b11111 )
b11111 *
b11111 +
b11111 ,
16
15
14
13
#340000
06
05
04
03
#345000
b10000 !
b1000 %
b1000 -
b100000 )
b10000 "
b1000 &
b1000 .
b100000 *
b10000 #
b1000 '
b1000 /
b100000 +
b10000 $
b1000 (
b1000 0
b100000 ,
16
15
14
13
#350000
06
05
04
03
#355000
b100001 )
b100001 *
b100001 +
b100001 ,
16
15
14
13
#360000
06
05
04
03
#365000
b100010 )
b100010 *
b100010 +
b100010 ,
16
15
14
13
#370000
06
05
04
03
#375000
b10010 !
b1001 %
b1001 -
b100011 )
b10010 "
b1001 &
b1001 .
b100011 *
b10010 #
b1001 '
b1001 /
b100011 +
b10010 $
b1001 (
b1001 0
b100011 ,
16
15
14
13
#380000
06
05
04
03
#385000
b100100 )
b100100 *
b100100 +
b100100 ,
16
15
14
13
#390000
06
05
04
03
#395000
b100101 )
b100101 *
b100101 +
b100101 ,
16
15
14
13
#400000
06
05
04
03
#405000
b100110 )
b100110 *
b100110 +
b100110 ,
16
15
14
13
#410000
06
05
04
03
#415000
b100111 )
b100111 *
b100111 +
b100111 ,
16
15
14
13
#420000
06
05
04
03
#425000
b10100 !
b1010 %
b1010 -
b101000 )
b10100 "
b1010 &
b1010 .
b101000 *
b10100 #
b1010 '
b1010 /
b101000 +
b10100 $
b1010 (
b1010 0
b101000 ,
16
15
14
13
#430000
06
05
04
03
#435000
b101001 )
b101001 *
b101001 +
b101001 ,
16
15
14
13
#440000
06
05
04
03
#445000
b101010 )
b101010 *
b101010 +
b101010 ,
16
15
14
13
#450000
06
05
04
03
#455000
b10110 !
b1011 %
b1011 -
b101011 )
b10110 "
b1011 &
b1011 .
b101011 *
b10110 #
b1011 '
b1011 /
b101011 +
b10110 $
b1011 (
b1011 0
b101011 ,
16
15
14
13
#460000
06
05
04
03
#465000
b101100 )
b101100 *
b101100 +
b101100 ,
16
15
14
13
#470000
06
05
04
03
#475000
b101101 )
b101101 *
b101101 +
b101101 ,
16
15
14
13
#480000
06
05
04
03
#485000
b101110 )
b101110 *
b101110 +
b101110 ,
16
15
14
13
#490000
06
05
04
03
#495000
b101111 )
b101111 *
b101111 +
b101111 ,
16
15
14
13
#500000
06
05
04
03
#505000
b1100 -
b110000 )
b11000 "
b1100 &
b1100 .
b110000 *
b11000 #
b1100 '
b1100 /
b110000 +
b11000 $
b1100 (
b1100 0
b110000 ,
16
15
14
13
#510000
06
05
04
03
#515000
b1101 -
b110001 )
b110001 *
b110001 +
b110001 ,
16
15
14
13
#520000
06
05
04
03
#525000
b11000 !
b1100 %
b1110 -
b110010 )
b110010 *
b110010 +
b110010 ,
16
15
14
13
#530000
06
05
04
03
#535000
b110011 )
b11010 "
b1101 &
b1101 .
b110011 *
b11010 #
b1101 '
b1101 /
b110011 +
b11010 $
b1101 (
b1101 0
b110011 ,
16
15
14
13
#540000
06
05
04
03
#545000
b110100 )
b110100 *
b110100 +
b110100 ,
16
15
14
13
#550000
06
05
04
03
#555000
b11010 !
b1101 %
b1111 -
b110101 )
b110101 *
b110101 +
b110101 ,
16
15
14
13
#560000
06
05
04
03
#565000
b110110 )
b110110 *
b110110 +
b110110 ,
16
15
14
13
#570000
06
05
04
03
#575000
b110111 )
b110111 *
b110111 +
b110111 ,
16
15
14
13
#580000
06
05
04
03
#585000
b111000 )
b11100 "
b1110 &
b1110 .
b111000 *
b11100 #
b1110 '
b1110 /
b111000 +
b11100 $
b1110 (
b1110 0
b111000 ,
16
15
14
13
#590000
06
05
04
03
#595000
b111001 )
b111001 *
b111001 +
b111001 ,
16
15
14
13
#600000
06
05
04
03
#605000
b11100 !
b1110 %
b10000 -
b111010 )
b111010 *
b111010 +
b111010 ,
16
15
14
13
#610000
06
05
04
03
#615000
b111011 )
b11110 "
b1111 &
b1111 .
b111011 *
b11110 #
b1111 '
b1111 /
b111011 +
b11110 $
b1111 (
b1111 0
b111011 ,
16
15
14
13
#620000
06
05
04
03
#625000
b111100 )
b111100 *
b111100 +
b111100 ,
16
15
14
13
#630000
06
05
04
03
#635000
b11110 !
b1111 %
b10001 -
b111101 )
b111101 *
b111101 +
b111101 ,
16
15
14
13
#640000
06
05
04
03
#645000
b111110 )
b111110 *
b111110 +
b111110 ,
16
15
14
13
#650000
06
05
04
03
#655000
b111111 )
b111111 *
b111111 +
b111111 ,
16
15
14
13
#660000
06
05
04
03
#665000
b1000000 )
b100000 "
b10000 &
b10000 .
b1000000 *
b100000 #
b10000 '
b10000 /
b1000000 +
b100000 $
b10000 (
b10000 0
b1000000 ,
16
15
14
13
#670000
06
05
04
03
#675000
b1000001 )
b1000001 *
b1000001 +
b1000001 ,
16
15
14
13
#680000
06
05
04
03
#685000
b100000 !
b10000 %
b10010 -
b1000010 )
b1000010 *
b1000010 +
b1000010 ,
16
15
14
13
#690000
06
05
04
03
#695000
b1000011 )
b100010 "
b10001 &
b10001 .
b1000011 *
b100010 #
b10001 '
b10001 /
b1000011 +
b100010 $
b10001 (
b10001 0
b1000011 ,
16
15
14
13
#700000
06
05
04
03
#705000
b1000100 )
b1000100 *
b1000100 +
b1000100 ,
16
15
14
13
#710000
06
05
04
03
#715000
b1000101 )
b1000101 *
b1000101 +
b1000101 ,
16
15
14
13
#720000
06
05
04
03
#725000
b100010 !
b10001 %
b10011 -
b1000110 )
b1000110 *
b1000110 +
b1000110 ,
16
15
14
13
#730000
06
05
04
03
#735000
b1000111 )
b1000111 *
b1000111 +
b1000111 ,
16
15
14
13
#740000
06
05
04
03
#745000
b1001000 )
b100100 "
b10010 &
b10010 .
b1001000 *
b100100 #
b10010 '
b10010 /
b1001000 +
b100100 $
b10010 (
b10010 0
b1001000 ,
16
15
14
13
#750000
06
05
04
03
#755000
b100100 !
b10010 %
b10100 -
b1001001 )
b1001001 *
b1001001 +
b1001001 ,
16
15
14
13
#760000
06
05
04
03
#765000
b1001010 )
b1001010 *
b1001010 +
b1001010 ,
16
15
14
13
#770000
06
05
04
03
#775000
b1001011 )
b100110 "
b10011 &
b10011 .
b1001011 *
b100110 #
b10011 '
b10011 /
b1001011 +
b100110 $
b10011 (
b10011 0
b1001011 ,
16
15
14
13
#780000
06
05
04
03
#785000
b1001100 )
b1001100 *
b1001100 +
b1001100 ,
16
15
14
13
#790000
06
05
04
03
#795000
b1001101 )
b1001101 *
b1001101 +
b1001101 ,
16
15
14
13
#800000
06
05
04
03
#805000
b100110 !
b10011 %
b10101 -
b1001110 )
b1001110 *
b1001110 +
b1001110 ,
16
15
14
13
#810000
06
05
04
03
#815000
b1001111 )
b1001111 *
b1001111 +
b1001111 ,
16
15
14
13
#820000
06
05
04
03
#825000
b1010000 )
b101000 "
b10100 &
b10100 .
b1010000 *
b101000 #
b10100 '
b10100 /
b1010000 +
b101000 $
b10100 (
b10100 0
b1010000 ,
16
15
14
13
#830000
06
05
04
03
#835000
b10110 -
b1010001 )
b1010001 *
b1010001 +
b1010001 ,
16
15
14
13
#840000
06
05
04
03
#845000
b101000 !
b10100 %
b10111 -
b1010010 )
b1010010 *
b1010010 +
b1010010 ,
16
15
14
13
#850000
06
05
04
03
#855000
b1010011 )
b101010 "
b10101 &
b10101 .
b1010011 *
b101010 #
b10101 '
b10101 /
b1010011 +
b101010 $
b10101 (
b10101 0
b1010011 ,
16
15
14
13
#860000
06
05
04
03
#865000
b1010100 )
b1010100 *
b1010100 +
b1010100 ,
16
15
14
13
#870000
06
05
04
03
#875000
b11000 -
b1010101 )
b1010101 *
b1010101 +
b1010101 ,
16
15
14
13
#880000
06
05
04
03
#885000
b11001 -
b1010110 )
b1010110 *
b1010110 +
b1010110 ,
16
15
14
13
#890000
06
05
04
03
#895000
b1010111 )
b1010111 *
b1010111 +
b1010111 ,
16
15
14
13
#900000
06
05
04
03
#905000
b101010 !
b10101 %
b11010 -
b1011000 )
b10110 .
b1011000 *
b10110 /
b1011000 +
b101100 $
b10110 (
b10110 0
b1011000 ,
16
15
14
13
#910000
06
05
04
03
#915000
b1011001 )
b10111 .
b1011001 *
b10111 /
b1011001 +
b1011001 ,
16
15
14
13
#920000
06
05
04
03
#925000
b1011010 )
b101100 "
b10110 &
b11000 .
b1011010 *
b101100 #
b10110 '
b11000 /
b1011010 +
b1011010 ,
16
15
14
13
#930000
06
05
04
03
#935000
b101100 !
b10110 %
b11011 -
b1011011 )
b1011011 *
b1011011 +
b101110 $
b10111 (
b10111 0
b1011011 ,
16
15
14
13
#940000
06
05
04
03
#945000
b1011100 )
b1011100 *
b1011100 +
b1011100 ,
16
15
14
13
#950000
06
05
04
03
#955000
b1011101 )
b1011101 *
b1011101 +
b1011101 ,
16
15
14
13
#960000
06
05
04
03
#965000
b1011110 )
b11001 .
b1011110 *
b11001 /
b1011110 +
b1011110 ,
16
15
14
13
#970000
06
05
04
03
#975000
b1011111 )
b11010 .
b1011111 *
b11010 /
b1011111 +
b1011111 ,
16
15
14
13
#980000
06
05
04
03
#985000
b101110 !
b10111 %
b11100 -
b1100000 )
b101110 "
b10111 &
b11011 .
b1100000 *
b101110 #
b10111 '
b11011 /
b1100000 +
b110000 $
b11000 (
b11000 0
b1100000 ,
16
15
14
13
#990000
06
05
04
03
#995000
b1100001 )
b1100001 *
b1100001 +
b1100001 ,
16
15
14
13
#1000000
06
05
04
03
#1005000
b1100010 )
b1100010 *
b1100010 +
b1100010 ,
16
15
14
13
#1010000
06
05
04
03
#1015000
b110000 !
b11000 %
b11101 -
b1100011 )
b1100011 *
b1100011 +
b110010 $
b11001 (
b11001 0
b1100011 ,
16
15
14
13
#1020000
06
05
04
03
#1025000
b1100100 )
b11100 .
b1100100 *
b11100 /
b1100100 +
b1100100 ,
16
15
14
13
#1030000
06
05
04
03
#1035000
b1100101 )
b11101 .
b1100101 *
b11101 /
b1100101 +
b1100101 ,
16
15
14
13
#1040000
06
05
04
03
#1045000
b110010 !
b11001 %
b11110 -
b1100110 )
b110000 "
b11000 &
b11110 .
b1100110 *
b110000 #
b11000 '
b11110 /
b1100110 +
b1100110 ,
16
15
14
13
#1050000
06
05
04
03
#1055000
b1100111 )
b1100111 *
b1100111 +
b1100111 ,
16
15
14
13
#1060000
06
05
04
03
#1065000
b1101000 )
b1101000 *
b1101000 +
b110100 $
b11010 (
b11010 0
b1101000 ,
16
15
14
13
#1070000
06
05
04
03
#1075000
b11111 -
b1101001 )
b1101001 *
b1101001 +
b1101001 ,
16
15
14
13
#1080000
06
05
04
03
#1085000
b100000 -
b1101010 )
b11111 .
b1101010 *
b11111 /
b1101010 +
b1101010 ,
16
15
14
13
#1090000
06
05
04
03
#1095000
b1101011 )
b100000 .
b1101011 *
b100000 /
b1101011 +
b110110 $
b11011 (
b11011 0
b1101011 ,
16
15
14
13
#1100000
06
05
04
03
#1105000
b110100 !
b11010 %
b100001 -
b1101100 )
b110010 "
b11001 &
b100001 .
b1101100 *
b110010 #
b11001 '
b100001 /
b1101100 +
b1101100 ,
16
15
14
13
#1110000
06
05
04
03
#1115000
b1101101 )
b1101101 *
b1101101 +
b1101101 ,
16
15
14
13
#1120000
06
05
04
03
#1125000
b1101110 )
b1101110 *
b1101110 +
b1101110 ,
16
15
14
13
#1130000
06
05
04
03
#1135000
b110110 !
b11011 %
b100010 -
b1101111 )
b1101111 *
b1101111 +
b1101111 ,
16
15
14
13
#1140000
06
05
04
03
#1145000
b1110000 )
b100010 .
b1110000 *
b100010 /
b1110000 +
b111000 $
b11100 (
b11100 0
b1110000 ,
16
15
14
13
#1150000
06
05
04
03
#1155000
b1110001 )
b100011 .
b1110001 *
b100011 /
b1110001 +
b1110001 ,
16
15
14
13
#1160000
06
05
04
03
#1165000
b1110010 )
b110100 "
b11010 &
b100100 .
b1110010 *
b110100 #
b11010 '
b100100 /
b1110010 +
b1110010 ,
16
15
14
13
#1170000
06
05
04
03
#1175000
b1110011 )
b1110011 *
b1110011 +
b111010 $
b11101 (
b11101 0
b1110011 ,
16
15
14
13
#1180000
06
05
04
03
#1185000
b111000 !
b11100 %
b100011 -
b1110100 )
b1110100 *
b1110100 +
b1110100 ,
16
15
14
13
#1190000
06
05
04
03
#1195000
b1110101 )
b1110101 *
b1110101 +
b1110101 ,
16
15
14
13
#1200000
06
05
04
03
#1205000
b1110110 )
b100101 .
b1110110 *
b100101 /
b1110110 +
b1110110 ,
16
15
14
13
#1210000
06
05
04
03
#1215000
b1110111 )
b100110 .
b1110111 *
b100110 /
b1110111 +
b1110111 ,
16
15
14
13
#1220000
06
05
04
03
#1225000
b111010 !
b11101 %
b100100 -
b1111000 )
b110110 "
b11011 &
b100111 .
b1111000 *
b110110 #
b11011 '
b100111 /
b1111000 +
b111100 $
b11110 (
b11110 0
b1111000 ,
16
15
14
13
#1230000
06
05
04
03
#1235000
b1111001 )
b1111001 *
b1111001 +
b1111001 ,
16
15
14
13
#1240000
06
05
04
03
#1245000
b1111010 )
b1111010 *
b1111010 +
b1111010 ,
16
15
14
13
#1250000
06
05
04
03
#1255000
b1111011 )
b1111011 *
b1111011 +
b111110 $
b11111 (
b11111 0
b1111011 ,
16
15
14
13
#1260000
06
05
04
03
#1265000
b111100 !
b11110 %
b100101 -
b1111100 )
b101000 .
b1111100 *
b101000 /
b1111100 +
b1111100 ,
16
15
14
13
#1270000
06
05
04
03
#1275000
b1111101 )
b101001 .
b1111101 *
b101001 /
b1111101 +
b1111101 ,
16
15
14
13
#1280000
06
05
04
03
#1285000
b1111110 )
b111000 "
b11100 &
b101010 .
b1111110 *
b111000 #
b11100 '
b101010 /
b1111110 +
b1111110 ,
16
15
14
13
#1290000
06
05
04
03
#1295000
b111110 !
b11111 %
b100110 -
b1111111 )
b1111111 *
b1111111 +
b1111111 ,
16
15
14
13
#1300000
06
05
04
03
#1305000
b10000000 )
b10000000 *
b10000000 +
b1000000 $
b100000 (
b100000 0
b10000000 ,
16
15
14
13
#1310000
06
05
04
03
#1315000
b10000001 )
b10000001 *
b10000001 +
b10000001 ,
16
15
14
13
#1320000
06
05
04
03
#1325000
b100111 -
b10000010 )
b101011 .
b10000010 *
b101011 /
b10000010 +
b10000010 ,
16
15
14
13
#1330000
06
05
04
03
#1335000
b10000011 )
b101100 .
b10000011 *
b101100 /
b10000011 +
b1000010 $
b100001 (
b100001 0
b10000011 ,
16
15
14
13
#1340000
06
05
04
03
#1345000
b101000 -
b10000100 )
b111010 "
b11101 &
b101101 .
b10000100 *
b111010 #
b11101 '
b101101 /
b10000100 +
b10000100 ,
16
15
14
13
#1350000
06
05
04
03
#1355000
b10000101 )
b10000101 *
b10000101 +
b10000101 ,
16
15
14
13
#1360000
06
05
04
03
#1365000
b1000000 !
b100000 %
b101001 -
b10000110 )
b10000110 *
b10000110 +
b10000110 ,
16
15
14
13
#1370000
06
05
04
03
#1375000
b10000111 )
b10000111 *
b10000111 +
b10000111 ,
16
15
14
13
#1380000
06
05
04
03
#1385000
b10001000 )
b101110 .
b10001000 *
b101110 /
b10001000 +
b1000100 $
b100010 (
b100010 0
b10001000 ,
16
15
14
13
#1390000
06
05
04
03
#1395000
b1000010 !
b100001 %
b101010 -
b10001001 )
b101111 .
b10001001 *
b101111 /
b10001001 +
b10001001 ,
16
15
14
13
#1400000
06
05
04
03
#1405000
b10001010 )
b111100 "
b11110 &
b110000 .
b10001010 *
b111100 #
b11110 '
b110000 /
b10001010 +
b10001010 ,
16
15
14
13
#1410000
06
05
04
03
#1415000
b10001011 )
b10001011 *
b10001011 +
b1000110 $
b100011 (
b100011 0
b10001011 ,
16
15
14
13
#1420000
06
05
04
03
#1425000
b10001100 )
b10001100 *
b10001100 +
b10001100 ,
16
15
14
13
#1430000
06
05
04
03
#1435000
b10001101 )
b10001101 *
b10001101 +
b10001101 ,
16
15
14
13
#1440000
06
05
04
03
#1445000
b1000100 !
b100010 %
b101011 -
b10001110 )
b110001 .
b10001110 *
b110001 /
b10001110 +
b10001110 ,
16
15
14
13
#1450000
06
05
04
03
#1455000
b10001111 )
b110010 .
b10001111 *
b110010 /
b10001111 +
b10001111 ,
16
15
14
13
#1460000
06
05
04
03
#1465000
b10010000 )
b111110 "
b11111 &
b110011 .
b10010000 *
b111110 #
b11111 '
b110011 /
b10010000 +
b1001000 $
b100100 (
b100100 0
b10010000 ,
16
15
14
13
#1470000
06
05
04
03
#1475000
b10010001 )
b10010001 *
b10010001 +
b10010001 ,
16
15
14
13
#1480000
06
05
04
03
#1485000
b1000110 !
b100011 %
b101100 -
b10010010 )
b10010010 *
b10010010 +
b10010010 ,
16
15
14
13
#1490000
06
05
04
03
#1495000
b10010011 )
b10010011 *
b10010011 +
b1001010 $
b100101 (
b100101 0
b10010011 ,
16
15
14
13
#1500000
06
05
04
03
#1505000
b10010100 )
b110100 .
b10010100 *
b110100 /
b10010100 +
b10010100 ,
16
15
14
13
#1510000
06
05
04
03
#1515000
b101101 -
b10010101 )
b110101 .
b10010101 *
b110101 /
b10010101 +
b10010101 ,
16
15
14
13
#1520000
06
05
04
03
#1525000
b101110 -
b10010110 )
b1000000 "
b100000 &
b110110 .
b10010110 *
b1000000 #
b100000 '
b110110 /
b10010110 +
b10010110 ,
16
15
14
13
#1530000
06
05
04
03
#1535000
b10010111 )
b10010111 *
b10010111 +
b10010111 ,
16
15
14
13
#1540000
06
05
04
03
#1545000
b101111 -
b10011000 )
b10011000 *
b10011000 +
b1001100 $
b100110 (
b100110 0
b10011000 ,
16
15
14
13
#1550000
06
05
04
03
#1555000
b10011001 )
b10011001 *
b10011001 +
b10011001 ,
16
15
14
13
#1560000
06
05
04
03
#1565000
b1001000 !
b100100 %
b110000 -
b10011010 )
b1000010 "
b100001 &
b110111 .
b10011010 *
b1000010 #
b100001 '
b110111 /
b10011010 +
b10011010 ,
16
15
14
13
#1570000
06
05
04
03
#1575000
b10011011 )
b10011011 *
b10011011 +
b1001110 $
b100111 (
b100111 0
b10011011 ,
16
15
14
13
#1580000
06
05
04
03
#1585000
b10011100 )
b10011100 *
b10011100 +
b10011100 ,
16
15
14
13
#1590000
06
05
04
03
#1595000
b110001 -
b10011101 )
b10011101 *
b10011101 +
b10011101 ,
16
15
14
13
#1600000
06
05
04
03
#1605000
b1001010 !
b100101 %
b110010 -
b10011110 )
b1000100 "
b100010 &
b111000 .
b10011110 *
b1000100 #
b100010 '
b111000 /
b10011110 +
b10011110 ,
16
15
14
13
#1610000
06
05
04
03
#1615000
b10011111 )
b10011111 *
b10011111 +
b10011111 ,
16
15
14
13
#1620000
06
05
04
03
#1625000
b10100000 )
b10100000 *
b10100000 +
b1010000 $
b101000 (
b101000 0
b10100000 ,
16
15
14
13
#1630000
06
05
04
03
#1635000
b110011 -
b10100001 )
b10100001 *
b10100001 +
b10100001 ,
16
15
14
13
#1640000
06
05
04
03
#1645000
b110100 -
b10100010 )
b1000110 "
b100011 &
b111001 .
b10100010 *
b1000110 #
b100011 '
b111001 /
b10100010 +
b10100010 ,
16
15
14
13
#1650000
06
05
04
03
#1655000
b10100011 )
b10100011 *
b10100011 +
b1010010 $
b101001 (
b101001 0
b10100011 ,
16
15
14
13
#1660000
06
05
04
03
#1665000
b1001100 !
b100110 %
b110101 -
b10100100 )
b10100100 *
b10100100 +
b10100100 ,
16
15
14
13
#1670000
06
05
04
03
#1675000
b10100101 )
b10100101 *
b10100101 +
b10100101 ,
16
15
14
13
#1680000
06
05
04
03
#1685000
b10100110 )
b1001000 "
b100100 &
b111010 .
b10100110 *
b1001000 #
b100100 '
b111010 /
b10100110 +
b10100110 ,
16
15
14
13
#1690000
06
05
04
03
#1695000
b110110 -
b10100111 )
b10100111 *
b10100111 +
b10100111 ,
16
15
14
13
#1700000
06
05
04
03
#1705000
b1001110 !
b100111 %
b110111 -
b10101000 )
b10101000 *
b10101000 +
b1010100 $
b101010 (
b101010 0
b10101000 ,
16
15
14
13
#1710000
06
05
04
03
#1715000
b10101001 )
b10101001 *
b10101001 +
b10101001 ,
16
15
14
13
#1720000
06
05
04
03
#1725000
b10101010 )
b1001010 "
b100101 &
b111011 .
b10101010 *
b1001010 #
b100101 '
b111011 /
b10101010 +
b10101010 ,
16
15
14
13
#1730000
06
05
04
03
#1735000
b111000 -
b10101011 )
b10101011 *
b10101011 +
b1010110 $
b101011 (
b101011 0
b10101011 ,
16
15
14
13
#1740000
06
05
04
03
#1745000
b111001 -
b10101100 )
b10101100 *
b10101100 +
b10101100 ,
16
15
14
13
#1750000
06
05
04
03
#1755000
b10101101 )
b10101101 *
b10101101 +
b10101101 ,
16
15
14
13
#1760000
06
05
04
03
#1765000
b1010000 !
b101000 %
b111010 -
b10101110 )
b1001100 "
b100110 &
b111100 .
b10101110 *
b1001100 #
b100110 '
b111100 /
b10101110 +
b10101110 ,
16
15
14
13
#1770000
06
05
04
03
#1775000
b10101111 )
b10101111 *
b10101111 +
b10101111 ,
16
15
14
13
#1780000
06
05
04
03
#1785000
b10110000 )
b10110000 *
b10110000 +
b1011000 $
b101100 (
b101100 0
b10110000 ,
16
15
14
13
#1790000
06
05
04
03
#1795000
b1010010 !
b101001 %
b111011 -
b10110001 )
b10110001 *
b10110001 +
b10110001 ,
16
15
14
13
#1800000
06
05
04
03
#1805000
b10110010 )
b1001110 "
b100111 &
b111101 .
b10110010 *
b1001110 #
b100111 '
b111101 /
b10110010 +
b10110010 ,
16
15
14
13
#1810000
06
05
04
03
#1815000
b10110011 )
b10110011 *
b10110011 +
b1011010 $
b101101 (
b101101 0
b10110011 ,
16
15
14
13
#1820000
06
05
04
03
#1825000
b10110100 )
b10110100 *
b10110100 +
b10110100 ,
16
15
14
13
#1830000
06
05
04
03
#1835000
b10110101 )
b10110101 *
b10110101 +
b10110101 ,
16
15
14
13
#1840000
06
05
04
03
#1845000
b111100 -
b10110110 )
b1010000 "
b101000 &
b111110 .
b10110110 *
b1010000 #
b101000 '
b111110 /
b10110110 +
b10110110 ,
16
15
14
13
#1850000
06
05
04
03
#1855000
b1010100 !
b101010 %
b111101 -
b10110111 )
b10110111 *
b10110111 +
b10110111 ,
16
15
14
13
#1860000
06
05
04
03
#1865000
b10111000 )
b10111000 *
b10111000 +
b1011100 $
b101110 (
b101110 0
b10111000 ,
16
15
14
13
#1870000
06
05
04
03
#1875000
b10111001 )
b10111001 *
b10111001 +
b10111001 ,
16
15
14
13
#1880000
06
05
04
03
#1885000
b10111010 )
b1010010 "
b101001 &
b111111 .
b10111010 *
b1010010 #
b101001 '
b111111 /
b10111010 +
b10111010 ,
16
15
14
13
#1890000
06
05
04
03
#1895000
b1010110 !
b101011 %
b111110 -
b10111011 )
b10111011 *
b10111011 +
b1011110 $
b101111 (
b101111 0
b10111011 ,
16
15
14
13
#1900000
06
05
04
03
#1905000
b10111100 )
b10111100 *
b10111100 +
b10111100 ,
16
15
14
13
#1910000
06
05
04
03
#1915000
b10111101 )
b10111101 *
b10111101 +
b10111101 ,
16
15
14
13
#1920000
06
05
04
03
#1925000
b1011000 !
b101100 %
b111111 -
b10111110 )
b1010100 "
b101010 &
b1000000 .
b10111110 *
b1010100 #
b101010 '
b1000000 /
b10111110 +
b10111110 ,
16
15
14
13
#1930000
06
05
04
03
#1935000
b10111111 )
b10111111 *
b10111111 +
b10111111 ,
16
15
14
13
#1940000
06
05
04
03
#1945000
b11000000 )
b11000000 *
b11000000 +
b1100000 $
b110000 (
b110000 0
b11000000 ,
16
15
14
13
#1950000
06
05
04
03
#1955000
b11000001 )
b11000001 *
b11000001 +
b11000001 ,
16
15
14
13
#1960000
06
05
04
03
#1965000
b11000010 )
b1010110 "
b101011 &
b1000001 .
b11000010 *
b1010110 #
b101011 '
b1000001 /
b11000010 +
b11000010 ,
16
15
14
13
#1970000
06
05
04
03
#1975000
b1011010 !
b101101 %
b1000000 -
b11000011 )
b11000011 *
b11000011 +
b1100010 $
b110001 (
b110001 0
b11000011 ,
16
15
14
13
#1980000
06
05
04
03
#1985000
b11000100 )
b11000100 *
b11000100 +
b11000100 ,
16
15
14
13
#1990000
06
05
04
03
#1995000
b11000101 )
b11000101 *
b11000101 +
b11000101 ,
16
15
14
13
#2000000
06
05
04
03
#2005000
b1011100 !
b101110 %
b1000001 -
b11000110 )
b1011000 "
b101100 &
b1000010 .
b11000110 *
b1011000 #
b101100 '
b1000010 /
b11000110 +
b11000110 ,
16
15
14
13
#2010000
06
05
04
03
#2015000
b11000111 )
b11000111 *
b11000111 +
b11000111 ,
16
15
14
13
#2020000
06
05
04
03
